{
  "server": "localhost",
  "port": 8284,
  "proto": "http",
  "ssl_cert": true,
  "secret": "secret",
  "default_path": "",
  "http_options": {},
  "response": 127,
  "auth": {"method": "token", "token": "myroot"}
}
